[gd_scene load_steps=4 format=3 uid="uid://bjha2rmi2b7xi"]

[sub_resource type="SegmentShape2D" id="SegmentShape2D_38e04"]
b = Vector2(0, 800)

[sub_resource type="SegmentShape2D" id="SegmentShape2D_72bfq"]
b = Vector2(0, 800)

[sub_resource type="RectangleShape2D" id="RectangleShape2D_vo2jo"]
size = Vector2(632, 80)

[node name="Jar" type="RigidBody2D"]
freeze = true

[node name="CollisionShape2D" type="CollisionShape2D" parent="."]
shape = SubResource("SegmentShape2D_38e04")

[node name="CollisionShape2D2" type="CollisionShape2D" parent="."]
position = Vector2(630, 0)
shape = SubResource("SegmentShape2D_72bfq")

[node name="CollisionShape2D3" type="CollisionShape2D" parent="."]
position = Vector2(316, 789)
shape = SubResource("RectangleShape2D_vo2jo")

[node name="Line2D" type="Line2D" parent="."]
show_behind_parent = true
points = PackedVector2Array(0, 0, 0, 750, 221.787, 750, 633, 750, 633, 0)
