; Engine configuration file.
; It's best edited using the editor UI and not directly,
; since the parameters that go here are not all obvious.
;
; Format:
;   [section] ; section goes between []
;   param=value ; assign values to parameters

config_version=5

[application]

config/name="fruta"
run/main_scene="res://node_2d.tscn"
config/features=PackedStringArray("4.1", "Forward Plus")
config/icon="res://logo.png"

[display]

window/size/viewport_width=648
window/size/viewport_height=1152
window/stretch/mode="canvas_items"
window/handheld/orientation=1

[input_devices]

pointing/emulate_mouse_from_touch=false

[rendering]

textures/vram_compression/import_etc2_astc=true
